[gd_scene load_steps=2 format=2]

[ext_resource path="res://say_hello.gd" type="Script" id=1]

[node name="Panel" type="Panel"]
margin_right = 189.0
margin_bottom = 101.0
script = ExtResource( 1 )
__meta__ = {
"_edit_use_anchors_": false
}

[node name="Label" type="Label" parent="."]
margin_left = 25.3619
margin_top = 21.3575
margin_right = 167.362
margin_bottom = 35.3575
text = "Diseses ist eine label!"
__meta__ = {
"_edit_use_anchors_": false
}

[node name="Button" type="Button" parent="."]
margin_left = 56.9774
margin_top = 56.3281
margin_right = 115.977
margin_bottom = 76.3281
text = "Press moi"
