[gd_scene load_steps=10 format=2]

[ext_resource path="res://dodge_assets/art/enemyFlyingAlt_2.png" type="Texture" id=1]
[ext_resource path="res://dodge_assets/art/enemyFlyingAlt_1.png" type="Texture" id=2]
[ext_resource path="res://dodge_assets/art/enemyWalking_1.png" type="Texture" id=3]
[ext_resource path="res://dodge_assets/art/enemySwimming_1.png" type="Texture" id=4]
[ext_resource path="res://dodge_assets/art/enemySwimming_2.png" type="Texture" id=5]
[ext_resource path="res://dodge_assets/art/enemyWalking_2.png" type="Texture" id=6]
[ext_resource path="res://Mob.gd" type="Script" id=7]

[sub_resource type="CapsuleShape2D" id=1]
radius = 37.2624
height = 23.7421

[sub_resource type="SpriteFrames" id=2]
animations = [ {
"frames": [ ExtResource( 3 ), ExtResource( 6 ) ],
"loop": true,
"name": "walk",
"speed": 3.0
}, {
"frames": [ ExtResource( 4 ), ExtResource( 5 ) ],
"loop": true,
"name": "swim",
"speed": 3.0
}, {
"frames": [ ExtResource( 2 ), ExtResource( 1 ) ],
"loop": true,
"name": "fly",
"speed": 3.0
} ]

[node name="Mob" type="RigidBody2D" groups=[
"mobs",
]]
collision_mask = 0
gravity_scale = 0.0
script = ExtResource( 7 )
__meta__ = {
"_edit_group_": true
}

[node name="VisibilityNotifier2D" type="VisibilityNotifier2D" parent="."]

[node name="CollisionShape2D" type="CollisionShape2D" parent="."]
rotation = 1.5708
shape = SubResource( 1 )

[node name="AnimatedSprite" type="AnimatedSprite" parent="."]
scale = Vector2( 0.75, 0.75 )
frames = SubResource( 2 )
animation = "walk"
frame = 1
playing = true

[connection signal="screen_exited" from="VisibilityNotifier2D" to="." method="_on_VisibilityNotifier2D_screen_exited"]
